Modules/Binary_Calculator/project_1/project_1.sim/sim_1/behav/xsim/dump.vcd
$date
   Mon Jan  8 17:25:26 2024
$end
$version
  2022.2.2
$end
$timescale
  1ps
$end
$scope module BinaryCalculator_TB $end
$var reg 1 ! Clock $end
$var reg 1 " Reset $end
$var reg 1 # InputKey $end
$var reg 1 $ ValidCmd $end
$var reg 1 % RWMem $end
$var reg 8 & Address [7:0] $end
$var reg 8 ' InA [7:0] $end
$var reg 8 ( InB [7:0] $end
$var reg 4 ) Sel [3:0] $end
$var reg 1 * ConfigDiv $end
$var reg 32 + Din [31:0] $end
$var wire 1 , DOutValid $end
$var wire 1 - DataOut $end
$var wire 1 . ClkTx $end
$var wire 1 / CalcActive $end
$var wire 1 0 CalcMode $end
$var wire 1 1 Busy $end
$scope module binaryCalculator $end
$var wire 1 2 Clock $end
$var wire 1 3 Reset $end
$var wire 1 4 InputKey $end
$var wire 1 5 ValidCmd $end
$var wire 1 6 RWMem $end
$var wire 8 7 Address [7:0] $end
$var wire 8 8 InA [7:0] $end
$var wire 8 9 InB [7:0] $end
$var wire 4 : Sel [3:0] $end
$var wire 1 ; ConfigDiv $end
$var wire 32 < Din [31:0] $end
$var wire 1 , DOutValid $end
$var wire 1 - DataOut $end
$var wire 1 . ClkTx $end
$var wire 1 / CalcActive $end
$var wire 1 0 CalcMode $end
$var wire 1 1 Busy $end
$var wire 1 = ActiveWire $end
$var wire 1 > CtrlModeTmp $end
$var wire 1 ? ResetTmp $end
$var wire 8 @ MuxInATmp [7:0] $end
$var wire 8 A MuxInBTmp [7:0] $end
$var wire 4 B MuxSelTmp [3:0] $end
$var wire 4 C AluFlagTmp [3:0] $end
$var wire 8 D AluOutTmp [7:0] $end
$var wire 32 E ConcatOutTmp [31:0] $end
$var wire 1 F CtrlTxDataTmp $end
$var wire 1 G CalcBusy $end
$var wire 1 H CtrlRWMemTmp $end
$var wire 1 I CtrlAccessMemTmp $end
$var wire 1 J SampleDataWire $end
$var wire 1 K TxDataWire $end
$var wire 1 L newRW $end
$var wire 32 M OutMemory [31:0] $end
$var wire 32 N TxDinTmp [31:0] $end
$var wire 1 O CustomizedReset $end
$scope module M1 $end
$var wire 8 8 In [7:0] $end
$var wire 8 P Zero [7:0] $end
$var wire 1 ? Sel $end
$var reg 8 Q Out [7:0] $end
$upscope $end
$scope module M2 $end
$var wire 8 9 In [7:0] $end
$var wire 8 R Zero [7:0] $end
$var wire 1 ? Sel $end
$var reg 8 S Out [7:0] $end
$upscope $end
$scope module M3 $end
$var wire 4 : In [3:0] $end
$var wire 4 T Zero [3:0] $end
$var wire 1 ? Sel $end
$var reg 4 U Out [3:0] $end
$upscope $end
$scope module alu $end
$var wire 8 @ A [7:0] $end
$var wire 8 A B [7:0] $end
$var wire 4 B Sel [3:0] $end
$var reg 4 V Flag [3:0] $end
$var reg 8 W Out [7:0] $end
$var reg 1 X zeroFlag $end
$var reg 1 Y carryFlag $end
$var reg 1 Z underflowFlag $end
$var reg 1 [ overflowFlag $end
$var reg 16 \ temp_multiply_result [15:0] $end
$var reg 264 ] temp_left_shift [263:0] $end
$var reg 8 ^ temp_right_shift [7:0] $end
$var reg 64 _ temp_pow [63:0] $end
$var wire 8 ` addOut [7:0] $end
$var wire 1 a addCarry $end
$scope module myAdd $end
$var wire 8 @ a [7:0] $end
$var wire 8 A b [7:0] $end
$var wire 1 b cin $end
$var wire 8 ` sum [7:0] $end
$var wire 1 a cout $end
$var wire 7 c carry [6:0] $end
$scope module fa0 $end
$var wire 1 d a $end
$var wire 1 e b $end
$var wire 1 b cin $end
$var reg 1 f sum $end
$var reg 1 g cout $end
$upscope $end
$scope module fa1 $end
$var wire 1 h a $end
$var wire 1 i b $end
$var wire 1 j cin $end
$var reg 1 k sum $end
$var reg 1 l cout $end
$upscope $end
$scope module fa2 $end
$var wire 1 m a $end
$var wire 1 n b $end
$var wire 1 o cin $end
$var reg 1 p sum $end
$var reg 1 q cout $end
$upscope $end
$scope module fa3 $end
$var wire 1 r a $end
$var wire 1 s b $end
$var wire 1 t cin $end
$var reg 1 u sum $end
$var reg 1 v cout $end
$upscope $end
$scope module fa4 $end
$var wire 1 w a $end
$var wire 1 x b $end
$var wire 1 y cin $end
$var reg 1 z sum $end
$var reg 1 { cout $end
$upscope $end
$scope module fa5 $end
$var wire 1 | a $end
$var wire 1 } b $end
$var wire 1 ~ cin $end
$var reg 1 !! sum $end
$var reg 1 "! cout $end
$upscope $end
$scope module fa6 $end
$var wire 1 #! a $end
$var wire 1 $! b $end
$var wire 1 %! cin $end
$var reg 1 &! sum $end
$var reg 1 '! cout $end
$upscope $end
$scope module fa7 $end
$var wire 1 (! a $end
$var wire 1 )! b $end
$var wire 1 *! cin $end
$var reg 1 +! sum $end
$var reg 1 ,! cout $end
$upscope $end
$upscope $end
$upscope $end
$scope module concat $end
$var wire 8 @ InA [7:0] $end
$var wire 8 A InB [7:0] $end
$var wire 8 D InC [7:0] $end
$var wire 4 B InD [3:0] $end
$var wire 4 C InE [3:0] $end
$var wire 32 E Out [31:0] $end
$upscope $end
$scope module controller $end
$var wire 1 2 Clock $end
$var wire 1 3 Reset $end
$var wire 1 5 ValidCmd $end
$var wire 1 4 InputKey $end
$var wire 1 L RW $end
$var wire 1 F TxDone $end
$var wire 1 = Active $end
$var wire 1 > Mode $end
$var wire 1 G Busy $end
$var wire 1 H RWMem $end
$var wire 1 I AccessMem $end
$var wire 1 J SampleData $end
$var wire 1 K TxData $end
$var wire 1 -! ActiveWire $end
$var wire 1 .! ModeWire $end
$scope module decInputKey $end
$var wire 1 4 InputKey $end
$var wire 1 2 Clock $end
$var wire 1 3 Reset $end
$var wire 1 5 ValidCmd $end
$var reg 1 /! Active $end
$var reg 1 0! Mode $end
$var reg 5 1! current_state [4:0] $end
$var reg 5 2! next_state [4:0] $end
$upscope $end
$scope module control_RW_Flow $end
$var wire 1 5 ValidCmd $end
$var wire 1 L RW $end
$var wire 1 3 Reset $end
$var wire 1 2 Clock $end
$var wire 1 F TxDone $end
$var wire 1 -! Active $end
$var wire 1 .! Mode $end
$var reg 1 3! AccessMem $end
$var reg 1 4! RWMem $end
$var reg 1 5! SampleData $end
$var reg 1 6! TxData $end
$var reg 1 7! Busy $end
$var reg 6 8! current_state [5:0] $end
$var reg 6 9! next_state [5:0] $end
$upscope $end
$upscope $end
$scope module memory $end
$var wire 32 E Din [31:0] $end
$var wire 8 7 Addr [7:0] $end
$var wire 1 I Valid $end
$var wire 1 H R_W $end
$var wire 1 3 Reset $end
$var wire 1 2 Clock $end
$var reg 32 :! Dout [31:0] $end
$var integer 32 ;! index [31:0] $end
$upscope $end
$scope module M4 $end
$var wire 32 E In [31:0] $end
$var wire 32 M Zero [31:0] $end
$var wire 1 > Sel $end
$var reg 32 <! Out [31:0] $end
$upscope $end
$scope module serialTransceiver $end
$var wire 32 N DataIn [31:0] $end
$var wire 1 J Sample $end
$var wire 1 K StartTx $end
$var wire 1 ? Reset $end
$var wire 1 2 Clock $end
$var wire 1 . ClockTx $end
$var reg 1 =! TxDone $end
$var reg 1 >! TxBusy $end
$var reg 1 ?! Dout $end
$var reg 1 @! TxxBusy $end
$var integer 32 A! regPos [31:0] $end
$var reg 32 B! sizeTransceived [31:0] $end
$var reg 32 C! shift_register [31:0] $end
$upscope $end
$scope module frequencyDivider $end
$var wire 1 2 Clock $end
$var wire 1 O Reset $end
$var wire 1 = Enable $end
$var wire 1 ; ConfigDiv $end
$var wire 32 < Din [31:0] $end
$var reg 1 D! ClockOut $end
$var reg 32 E! internReg [31:0] $end
$var reg 32 F! counter [31:0] $end
$upscope $end
$upscope $end
$upscope $end
$enddefinitions $end
#0
$dumpvars
0!
0!!
1"
0"!
x#
0#!
x$
0$!
x%
0%!
bx &
0&!
bx '
0'!
bx (
0(!
bx )
0)!
x*
0*!
bx +
0+!
0,
0,!
0-
0-!
0.
0.!
0/
0/!
00
00!
01
b0 1!
02
b0xxx 2!
13
03!
x4
04!
x5
05!
x6
06!
bx 7
07!
bx 8
b0 8!
bx 9
b0 9!
bx :
b0 :!
x;
b100000000 ;!
bx <
b10000000000000000000000000000 <!
0=
0=!
0>
0>!
1?
0?!
b0 @
0@!
b0 A
b100000 A!
b0 B
b0 B!
b1 C
b0 C!
b0 D
0D!
b10000000000000000000000000000 E
b1 E!
0F
b0 F!
0G
0H
0I
0J
0K
0L
b0 M
b10000000000000000000000000000 N
1O
b0 P
b0 Q
b0 R
b0 S
b0 T
b0 U
b1 V
b0 W
1X
0Y
0Z
0[
bx \
bx ]
bx ^
bx _
b0 `
0a
0b
b0 c
0d
0e
0f
0g
0h
0i
0j
0k
0l
0m
0n
0o
0p
0q
0r
0s
0t
0u
0v
0w
0x
0y
0z
0{
0|
0}
0~
$end
#5000
1!
b0 1!
12
03!
04!
05!
06!
07!
b0 8!
b0 :!
b100000000 ;!
0=!
0>!
0?!
0@!
b100000 A!
b0 B!
b0 C!
0D!
b1 E!
b0 F!
#9000
0"
1#
1$
0%
b0 &
b11110000 '
b11110001 (
b0 )
1*
b101 +
b1 2!
03
14
15
06
b0 7
b11110000 8
b11110001 9
b0 9!
b0 :
1;
b101 <
1?
0L
0O
b0 Q
b0 S
b0 U
#10000
0!
02
0D!
#15000
1!
0/!
00!
b1 1!
12
b0xxx 2!
b0 8!
b0 :!
0=!
0>!
0?!
0@!
b100000 A!
b0 B!
b0 C!
0D!
b101 E!
b1 F!
#19000
0#
b10 2!
04
#20000
0!
02
0D!
#25000
1!
0/!
00!
b10 1!
12
b0xxx 2!
b0 8!
b0 :!
0=!
0>!
0?!
0@!
b100000 A!
b0 B!
b0 C!
0D!
b101 E!
b10 F!
#29000
1#
b11 2!
14
#30000
0!
02
0D!
#35000
1!
0/!
00!
b11 1!
12
b0xxx 2!
b0 8!
b0 :!
0=!
0>!
0?!
0@!
b100000 A!
b0 B!
b0 C!
0D!
b101 E!
b11 F!
#39000
0#
b100 2!
04
#40000
0!
02
0D!
#45000
1!
0/!
00!
b100 1!
12
b101 2!
b0 8!
b0 :!
0=!
0>!
0?!
0@!
b100000 A!
b0 B!
b0 C!
0D!
b101 E!
b100 F!
#50000
0!
02
0D!
#55000
1!
1!!
1"!
1#!
1$!
1%!
1&!
1'!
1(!
1)!
1*!
1+!
1,!
1-!
1/
1/!
00!
b101 1!
12
b101 2!
b0 8!
b100 9!
b0 :!
b100000111000011111000111110000 <!
1=
0=!
0>!
0?
0?!
b11110000 @
0@!
b11110001 A
b100000 A!
b0 B!
b10 C
b0 C!
b11100001 D
0D!
b100000111000011111000111110000 E
b101 E!
b101 F!
0L
b100000111000011111000111110000 N
0O
b11110000 Q
b11110001 S
b0 U
b10 V
b11100001 W
0X
1Y
0Z
0[
b11100001 `
1a
b1110000 c
0d
1e
1f
0g
0h
0i
0m
0n
0r
0s
1w
1x
0z
1{
1|
1}
1~
#60000
0!
02
#65000
1!
1.
00!
11
b101 1!
12
03!
04!
15!
06!
17!
b100 8!
b1000 9!
b0 :!
0=!
1D!
b110 F!
1G
1J
#70000
0!
02
#75000
1!
00!
b101 1!
12
03!
04!
05!
16!
17!
b1000 8!
b10000 9!
b0 :!
0=!
b100000111000011111000111110000 C!
1D!
b111 F!
0J
1K
#80000
0!
02
#85000
1!
0.
00!
b101 1!
12
03!
04!
05!
16!
17!
b10000 8!
b0 :!
0=!
1@!
0D!
b1000 F!
#90000
0!
02
#95000
1!
00!
b101 1!
12
b10000 8!
b0 :!
0=!
1@!
0D!
b1001 F!
#100000
0!
02
#105000
1!
00!
b101 1!
12
b10000 8!
b0 :!
0=!
1@!
0D!
b1010 F!
#110000
0!
02
#115000
1!
1,
1.
00!
b101 1!
12
b10000 8!
b0 :!
0=!
1>!
0?!
1@!
b1 B!
b1000001110000111110001111100000 C!
1D!
b1011 F!
#120000
0!
02
#125000
1!
00!
b101 1!
12
b10000 8!
b0 :!
0=!
1@!
1D!
b1100 F!
#130000
0!
02
#135000
1!
0.
00!
b101 1!
12
b10000 8!
b0 :!
0=!
1@!
0D!
b1101 F!
#139000
1#
0$
0*
b101 2!
14
05
0;
0O
#140000
0!
02
#145000
1!
12
b10000 8!
b0 :!
0=!
1@!
0D!
b1110 F!
#150000
0!
02
#155000
1!
12
b10000 8!
b0 :!
0=!
1@!
0D!
b1111 F!
#160000
0!
02
#165000
1!
1.
12
b10000 8!
b0 :!
0=!
1>!
0?!
1@!
b10 B!
b10000011100001111100011111000000 C!
1D!
b10000 F!
#170000
0!
02
#175000
1!
12
b10000 8!
b0 :!
0=!
1@!
1D!
b10001 F!
#180000
0!
02
#185000
1!
0.
12
b10000 8!
b0 :!
0=!
1@!
0D!
b10010 F!
#190000
0!
02
#195000
1!
12
b10000 8!
b0 :!
0=!
1@!
0D!
b10011 F!
#200000
0!
02
#205000
1!
12
b10000 8!
b0 :!
0=!
1@!
0D!
b10100 F!
#210000
0!
02
#215000
1!
1-
1.
12
b10000 8!
b0 :!
0=!
1>!
1?!
1@!
b11 B!
b111000011111000111110000000 C!
1D!
b10101 F!
#220000
0!
02
#225000
1!
12
b10000 8!
b0 :!
0=!
1@!
1D!
b10110 F!
#230000
0!
02
#235000
1!
0.
12
b10000 8!
b0 :!
0=!
1@!
0D!
b10111 F!
#240000
0!
02
#245000
1!
12
b10000 8!
b0 :!
0=!
1@!
0D!
b11000 F!
#250000
0!
02
#255000
1!
12
b10000 8!
b0 :!
0=!
1@!
0D!
b11001 F!
#260000
0!
02
#265000
1!
0-
1.
12
b10000 8!
b0 :!
0=!
1>!
0?!
1@!
b100 B!
b1110000111110001111100000000 C!
1D!
b11010 F!
#270000
0!
02
#275000
1!
12
b10000 8!
b0 :!
0=!
1@!
1D!
b11011 F!
#280000
0!
02
#285000
1!
0.
12
b10000 8!
b0 :!
0=!
1@!
0D!
b11100 F!
#290000
0!
02
#295000
1!
12
b10000 8!
b0 :!
0=!
1@!
0D!
b11101 F!
#300000
0!
02
#305000
1!
12
b10000 8!
b0 :!
0=!
1@!
0D!
b11110 F!
#310000
0!
02
#315000
1!
1.
12
b10000 8!
b0 :!
0=!
1>!
0?!
1@!
b101 B!
b11100001111100011111000000000 C!
1D!
b11111 F!
#320000
0!
02
#325000
1!
12
b10000 8!
b0 :!
0=!
1@!
1D!
b100000 F!
#330000
0!
02
#335000
1!
0.
12
b10000 8!
b0 :!
0=!
1@!
0D!
b100001 F!
#340000
0!
02
#345000
1!
12
b10000 8!
b0 :!
0=!
1@!
0D!
b100010 F!
#350000
0!
02
#355000
1!
12
b10000 8!
b0 :!
0=!
1@!
0D!
b100011 F!
#360000
0!
02
#365000
1!
1.
12
b10000 8!
b0 :!
0=!
1>!
0?!
1@!
b110 B!
b111000011111000111110000000000 C!
1D!
b100100 F!
#370000
0!
02
#375000
1!
12
b10000 8!
b0 :!
0=!
1@!
1D!
b100101 F!
#380000
0!
02
#385000
1!
0.
12
b10000 8!
b0 :!
0=!
1@!
0D!
b100110 F!
#390000
0!
02
#395000
1!
12
b10000 8!
b0 :!
0=!
1@!
0D!
b100111 F!
#400000
0!
02
#405000
1!
12
b10000 8!
b0 :!
0=!
1@!
0D!
b101000 F!
#410000
0!
02
#415000
1!
1.
12
b10000 8!
b0 :!
0=!
1>!
0?!
1@!
b111 B!
b1110000111110001111100000000000 C!
1D!
b101001 F!
#420000
0!
02
#425000
1!
12
b10000 8!
b0 :!
0=!
1@!
1D!
b101010 F!
#430000
0!
02
#435000
1!
0.
12
b10000 8!
b0 :!
0=!
1@!
0D!
b101011 F!
#440000
0!
02
#445000
1!
12
b10000 8!
b0 :!
0=!
1@!
0D!
b101100 F!
#450000
0!
02
#455000
1!
12
b10000 8!
b0 :!
0=!
1@!
0D!
b101101 F!
#460000
0!
02
#465000
1!
1.
12
b10000 8!
b0 :!
0=!
1>!
0?!
1@!
b1000 B!
b11100001111100011111000000000000 C!
1D!
b101110 F!
#470000
0!
02
#475000
1!
12
b10000 8!
b0 :!
0=!
1@!
1D!
b101111 F!
#480000
0!
02
#485000
1!
0.
12
b10000 8!
b0 :!
0=!
1@!
0D!
b110000 F!
#490000
0!
02
#495000
1!
12
b10000 8!
b0 :!
0=!
1@!
0D!
b110001 F!
#500000
0!
02
#505000
1!
12
b10000 8!
b0 :!
0=!
1@!
0D!
b110010 F!
#510000
0!
02
#515000
1!
1-
1.
12
b10000 8!
b0 :!
0=!
1>!
1?!
1@!
b1001 B!
b11000011111000111110000000000000 C!
1D!
b110011 F!
#520000
0!
02
#525000
1!
12
b10000 8!
b0 :!
0=!
1@!
1D!
b110100 F!
#530000
0!
02
#535000
1!
0.
12
b10000 8!
b0 :!
0=!
1@!
0D!
b110101 F!
#540000
0!
02
#545000
1!
12
b10000 8!
b0 :!
0=!
1@!
0D!
b110110 F!
#550000
0!
02
#555000
1!
12
b10000 8!
b0 :!
0=!
1@!
0D!
b110111 F!
#560000
0!
02
#565000
1!
1.
12
b10000 8!
b0 :!
0=!
1>!
1?!
1@!
b1010 B!
b10000111110001111100000000000000 C!
1D!
b111000 F!
#570000
0!
02
#575000
1!
12
b10000 8!
b0 :!
0=!
1@!
1D!
b111001 F!
#580000
0!
02
#585000
1!
0.
12
b10000 8!
b0 :!
0=!
1@!
0D!
b111010 F!
#590000
0!
02
#595000
1!
12
b10000 8!
b0 :!
0=!
1@!
0D!
b111011 F!
#600000
0!
02
#605000
1!
12
b10000 8!
b0 :!
0=!
1@!
0D!
b111100 F!
#610000
0!
02
#615000
1!
1.
12
b10000 8!
b0 :!
0=!
1>!
1?!
1@!
b1011 B!
b1111100011111000000000000000 C!
1D!
b111101 F!
#620000
0!
02
#625000
1!
12
b10000 8!
b0 :!
0=!
1@!
1D!
b111110 F!
#630000
0!
02
#635000
1!
0.
12
b10000 8!
b0 :!
0=!
1@!
0D!
b111111 F!
#640000
0!
02
#645000
1!
12
b10000 8!
b0 :!
0=!
1@!
0D!
b1000000 F!
#650000
0!
02
#655000
1!
12
b10000 8!
b0 :!
0=!
1@!
0D!
b1000001 F!
#660000
0!
02
#665000
1!
0-
1.
12
b10000 8!
b0 :!
0=!
1>!
0?!
1@!
b1100 B!
b11111000111110000000000000000 C!
1D!
b1000010 F!
#670000
0!
02
#675000
1!
12
b10000 8!
b0 :!
0=!
1@!
1D!
b1000011 F!
#680000
0!
02
#685000
1!
0.
12
b10000 8!
b0 :!
0=!
1@!
0D!
b1000100 F!
#690000
0!
02
#695000
1!
12
b10000 8!
b0 :!
0=!
1@!
0D!
b1000101 F!
#700000
0!
02
#705000
1!
12
b10000 8!
b0 :!
0=!
1@!
0D!
b1000110 F!
#710000
0!
02
#715000
1!
1.
12
b10000 8!
b0 :!
0=!
1>!
0?!
1@!
b1101 B!
b111110001111100000000000000000 C!
1D!
b1000111 F!
#720000
0!
02
#725000
1!
12
b10000 8!
b0 :!
0=!
1@!
1D!
b1001000 F!
#730000
0!
02
#735000
1!
0.
12
b10000 8!
b0 :!
0=!
1@!
0D!
b1001001 F!
#740000
0!
02
#745000
1!
12
b10000 8!
b0 :!
0=!
1@!
0D!
b1001010 F!
#750000
0!
02
#755000
1!
12
b10000 8!
b0 :!
0=!
1@!
0D!
b1001011 F!
#760000
0!
02
#765000
1!
1.
12
b10000 8!
b0 :!
0=!
1>!
0?!
1@!
b1110 B!
b1111100011111000000000000000000 C!
1D!
b1001100 F!
#770000
0!
02
#775000
1!
12
b10000 8!
b0 :!
0=!
1@!
1D!
b1001101 F!
#780000
0!
02
#785000
1!
0.
12
b10000 8!
b0 :!
0=!
1@!
0D!
b1001110 F!
#790000
0!
02
#795000
1!
12
b10000 8!
b0 :!
0=!
1@!
0D!
b1001111 F!
#800000
0!
02
#805000
1!
12
b10000 8!
b0 :!
0=!
1@!
0D!
b1010000 F!
#810000
0!
02
#815000
1!
1.
12
b10000 8!
b0 :!
0=!
1>!
0?!
1@!
b1111 B!
b11111000111110000000000000000000 C!
1D!
b1010001 F!
#820000
0!
02
#825000
1!
12
b10000 8!
b0 :!
0=!
1@!
1D!
b1010010 F!
#830000
0!
02
#835000
1!
0.
12
b10000 8!
b0 :!
0=!
1@!
0D!
b1010011 F!
#840000
0!
02
#845000
1!
12
b10000 8!
b0 :!
0=!
1@!
0D!
b1010100 F!
#850000
0!
02
#855000
1!
12
b10000 8!
b0 :!
0=!
1@!
0D!
b1010101 F!
#860000
0!
02
#865000
1!
1-
1.
12
b10000 8!
b0 :!
0=!
1>!
1?!
1@!
b10000 B!
b11110001111100000000000000000000 C!
1D!
b1010110 F!
#870000
0!
02
#875000
1!
12
b10000 8!
b0 :!
0=!
1@!
1D!
b1010111 F!
#880000
0!
02
#885000
1!
0.
12
b10000 8!
b0 :!
0=!
1@!
0D!
b1011000 F!
#890000
0!
02
#895000
1!
12
b10000 8!
b0 :!
0=!
1@!
0D!
b1011001 F!
#900000
0!
02
#905000
1!
12
b10000 8!
b0 :!
0=!
1@!
0D!
b1011010 F!
#910000
0!
02
#915000
1!
1.
12
b10000 8!
b0 :!
0=!
1>!
1?!
1@!
b10001 B!
b11100011111000000000000000000000 C!
1D!
b1011011 F!
#920000
0!
02
#925000
1!
12
b10000 8!
b0 :!
0=!
1@!
1D!
b1011100 F!
#930000
0!
02
#935000
1!
0.
12
b10000 8!
b0 :!
0=!
1@!
0D!
b1011101 F!
#940000
0!
02
#945000
1!
12
b10000 8!
b0 :!
0=!
1@!
0D!
b1011110 F!
#950000
0!
02
#955000
1!
12
b10000 8!
b0 :!
0=!
1@!
0D!
b1011111 F!
#960000
0!
02
#965000
1!
1.
12
b10000 8!
b0 :!
0=!
1>!
1?!
1@!
b10010 B!
b11000111110000000000000000000000 C!
1D!
b1100000 F!
#970000
0!
02
#975000
1!
12
b10000 8!
b0 :!
0=!
1@!
1D!
b1100001 F!
#980000
0!
02
#985000
1!
0.
12
b10000 8!
b0 :!
0=!
1@!
0D!
b1100010 F!
#990000
0!
02
#995000
1!
12
b10000 8!
b0 :!
0=!
1@!
0D!
b1100011 F!
#1000000
0!
02
#1005000
1!
12
b10000 8!
b0 :!
0=!
1@!
0D!
b1100100 F!
#1010000
0!
02
#1015000
1!
1.
12
b10000 8!
b0 :!
0=!
1>!
1?!
1@!
b10011 B!
b10001111100000000000000000000000 C!
1D!
b1100101 F!
#1020000
0!
02
#1025000
1!
12
b10000 8!
b0 :!
0=!
1@!
1D!
b1100110 F!
#1030000
0!
02
#1035000
1!
0.
12
b10000 8!
b0 :!
0=!
1@!
0D!
b1100111 F!
#1040000
0!
02
#1045000
1!
12
b10000 8!
b0 :!
0=!
1@!
0D!
b1101000 F!
#1050000
0!
02
#1055000
1!
12
b10000 8!
b0 :!
0=!
1@!
0D!
b1101001 F!
#1060000
0!
02
#1065000
1!
1.
12
b10000 8!
b0 :!
0=!
1>!
1?!
1@!
b10100 B!
b11111000000000000000000000000 C!
1D!
b1101010 F!
#1070000
0!
02
#1075000
1!
12
b10000 8!
b0 :!
0=!
1@!
1D!
b1101011 F!
#1080000
0!
02
#1085000
1!
0.
12
b10000 8!
b0 :!
0=!
1@!
0D!
b1101100 F!
#1090000
0!
02
#1095000
1!
12
b10000 8!
b0 :!
0=!
1@!
0D!
b1101101 F!
#1100000
0!
02
#1105000
1!
12
b10000 8!
b0 :!
0=!
1@!
0D!
b1101110 F!
#1110000
0!
02
#1115000
1!
0-
1.
12
b10000 8!
b0 :!
0=!
1>!
0?!
1@!
b10101 B!
b111110000000000000000000000000 C!
1D!
b1101111 F!
#1120000
0!
02
#1125000
1!
12
b10000 8!
b0 :!
0=!
1@!
1D!
b1110000 F!
#1130000
0!
02
#1135000
1!
0.
12
b10000 8!
b0 :!
0=!
1@!
0D!
b1110001 F!
#1140000
0!
02
#1145000
1!
12
b10000 8!
b0 :!
0=!
1@!
0D!
b1110010 F!
#1150000
0!
02
#1155000
1!
12
b10000 8!
b0 :!
0=!
1@!
0D!
b1110011 F!
#1160000
0!
02
#1165000
1!
1.
12
b10000 8!
b0 :!
0=!
1>!
0?!
1@!
b10110 B!
b1111100000000000000000000000000 C!
1D!
b1110100 F!
#1170000
0!
02
#1175000
1!
12
b10000 8!
b0 :!
0=!
1@!
1D!
b1110101 F!
#1180000
0!
02
#1185000
1!
0.
12
b10000 8!
b0 :!
0=!
1@!
0D!
b1110110 F!
#1190000
0!
02
#1195000
1!
12
b10000 8!
b0 :!
0=!
1@!
0D!
b1110111 F!
#1200000
0!
02
#1205000
1!
12
b10000 8!
b0 :!
0=!
1@!
0D!
b1111000 F!
#1210000
0!
02
#1215000
1!
1.
12
b10000 8!
b0 :!
0=!
1>!
0?!
1@!
b10111 B!
b11111000000000000000000000000000 C!
1D!
b1111001 F!
#1220000
0!
02
#1225000
1!
12
b10000 8!
b0 :!
0=!
1@!
1D!
b1111010 F!
#1230000
0!
02
#1235000
1!
0.
12
b10000 8!
b0 :!
0=!
1@!
0D!
b1111011 F!
#1240000
0!
02
#1245000
1!
12
b10000 8!
b0 :!
0=!
1@!
0D!
b1111100 F!
#1250000
0!
02
#1255000
1!
12
b10000 8!
b0 :!
0=!
1@!
0D!
b1111101 F!
#1260000
0!
02
#1265000
1!
1-
1.
12
b10000 8!
b0 :!
0=!
1>!
1?!
1@!
b11000 B!
b11110000000000000000000000000000 C!
1D!
b1111110 F!
#1270000
0!
02
#1275000
1!
12
b10000 8!
b0 :!
0=!
1@!
1D!
b1111111 F!
#1280000
0!
02
#1285000
1!
0.
12
b10000 8!
b0 :!
0=!
1@!
0D!
b10000000 F!
#1290000
0!
02
#1295000
1!
12
b10000 8!
b0 :!
0=!
1@!
0D!
b10000001 F!
#1300000
0!
02
#1305000
1!
12
b10000 8!
b0 :!
0=!
1@!
0D!
b10000010 F!
#1310000
0!
02
#1315000
1!
1.
12
b10000 8!
b0 :!
0=!
1>!
1?!
1@!
b11001 B!
b11100000000000000000000000000000 C!
1D!
b10000011 F!
#1320000
0!
02
#1325000
1!
12
b10000 8!
b0 :!
0=!
1@!
1D!
b10000100 F!
#1330000
0!
02
#1335000
1!
0.
12
b10000 8!
b0 :!
0=!
1@!
0D!
b10000101 F!
#1340000
0!
02
#1345000
1!
12
b10000 8!
b0 :!
0=!
1@!
0D!
b10000110 F!
#1350000
0!
02
#1355000
1!
12
b10000 8!
b0 :!
0=!
1@!
0D!
b10000111 F!
#1360000
0!
02
#1365000
1!
1.
12
b10000 8!
b0 :!
0=!
1>!
1?!
1@!
b11010 B!
b11000000000000000000000000000000 C!
1D!
b10001000 F!
#1370000
0!
02
#1375000
1!
12
b10000 8!
b0 :!
0=!
1@!
1D!
b10001001 F!
#1380000
0!
02
#1385000
1!
0.
12
b10000 8!
b0 :!
0=!
1@!
0D!
b10001010 F!
#1390000
0!
02
#1395000
1!
12
b10000 8!
b0 :!
0=!
1@!
0D!
b10001011 F!
#1400000
0!
02
#1405000
1!
12
b10000 8!
b0 :!
0=!
1@!
0D!
b10001100 F!
#1410000
0!
02
#1415000
1!
1.
12
b10000 8!
b0 :!
0=!
1>!
1?!
1@!
b11011 B!
b10000000000000000000000000000000 C!
1D!
b10001101 F!
#1420000
0!
02
#1425000
1!
12
b10000 8!
b0 :!
0=!
1@!
1D!
b10001110 F!
#1430000
0!
02
#1435000
1!
0.
12
b10000 8!
b0 :!
0=!
1@!
0D!
b10001111 F!
#1440000
0!
02
#1445000
1!
12
b10000 8!
b0 :!
0=!
1@!
0D!
b10010000 F!
#1450000
0!
02
#1455000
1!
12
b10000 8!
b0 :!
0=!
1@!
0D!
b10010001 F!
#1460000
0!
02
#1465000
1!
1.
12
b10000 8!
b0 :!
0=!
1>!
1?!
1@!
b11100 B!
b0 C!
1D!
b10010010 F!
#1470000
0!
02
#1475000
1!
12
b10000 8!
b0 :!
0=!
1@!
1D!
b10010011 F!
#1480000
0!
02
#1485000
1!
0.
12
b10000 8!
b0 :!
0=!
1@!
0D!
b10010100 F!
#1490000
0!
02
#1495000
1!
12
b10000 8!
b0 :!
0=!
1@!
0D!
b10010101 F!
#1500000
0!
02
#1505000
1!
12
b10000 8!
b0 :!
0=!
1@!
0D!
b10010110 F!
#1510000
0!
02
#1515000
1!
0-
1.
12
b10000 8!
b0 :!
0=!
1>!
0?!
1@!
b11101 B!
b0 C!
1D!
b10010111 F!
#1520000
0!
02
#1525000
1!
12
b10000 8!
b0 :!
0=!
1@!
1D!
b10011000 F!
#1530000
0!
02
#1535000
1!
0.
12
b10000 8!
b0 :!
0=!
1@!
0D!
b10011001 F!
#1540000
0!
02
#1545000
1!
12
b10000 8!
b0 :!
0=!
1@!
0D!
b10011010 F!
#1550000
0!
02
#1555000
1!
12
b10000 8!
b0 :!
0=!
1@!
0D!
b10011011 F!
#1560000
0!
02
#1565000
1!
1.
12
b10000 8!
b0 :!
0=!
1>!
0?!
1@!
b11110 B!
b0 C!
1D!
b10011100 F!
#1570000
0!
02
#1575000
1!
12
b10000 8!
b0 :!
0=!
1@!
1D!
b10011101 F!
#1580000
0!
02
#1585000
1!
0.
12
b10000 8!
b0 :!
0=!
1@!
0D!
b10011110 F!
#1590000
0!
02
#1595000
1!
12
b10000 8!
b0 :!
0=!
1@!
0D!
b10011111 F!
#1600000
0!
02
#1605000
1!
12
b10000 8!
b0 :!
0=!
1@!
0D!
b10100000 F!
#1610000
0!
02
#1615000
1!
1.
12
b10000 8!
b0 :!
0=!
1>!
0?!
1@!
b11111 B!
b0 C!
1D!
b10100001 F!
#1620000
0!
02
#1625000
1!
12
b10000 8!
b0 :!
0=!
1@!
1D!
b10100010 F!
#1630000
0!
02
#1635000
1!
0.
12
b10000 8!
b0 :!
0=!
1@!
0D!
b10100011 F!
#1639000
0#
b101 2!
04
#1640000
0!
02
#1645000
1!
12
b10000 8!
b0 :!
0=!
1@!
0D!
b10100100 F!
#1650000
0!
02
